"Year","Estate Tax Exemption","Gift Tax Exclusion"
"2001","675000","10000"
"2002","1000000","11000"
"2003","1000000","11000"
"2004","1500000","11000"
"2005","1500000","11000"
"2006","2000000","12000"
"2007","2000000","12000"
"2008","2000000","12000"
"2009","3500000","13000"
"2010","5000000","13000"
"2011","5000000","13000"
"2012","5120000","13000"
"2013","5250000","14000"
"2014","5340000","14000"
"2015","5430000","14000"
"2016","5450000","14000"
"2017","5490000","14000"
"2018","11180000","15000"
"2019","11400000","15000"
"2020","11580000","15000"
"2021","11700000","15000"
