"Year","Maximum Contribution"
"2005","42000"
"2006","44000"
"2007","45000"
"2008","46000"
"2009","49000"
"2010","49000"
"2011","49000"
"2012","50000"
"2013","51000"
"2014","52000"
"2015","53000"
"2016","53000"
"2017","54000"
"2018","55000"
"2019","56000"
"2020","57000"
"2021","58000"
