"Year","Under 50 Limit","Over 50 Limit"
"2005","10000","12000"
"2006","10000","12500"
"2007","10500","13000"
"2008","10500","13000"
"2009","11500","14000"
"2010","11500","14000"
"2011","11500","14000"
"2012","11500","14000"
"2013","12000","14500"
"2014","12000","14500"
"2015","12500","15500"
"2016","12500","15500"
"2017","12500","15500"
"2018","12500","15500"
"2019","13000","16000"
"2020","13500","16500"
